{
    "development": {
        "config_id": "development",
        "node_port": 1234,
        "base_url": "https://jobs.github.com/positions.json"
    },
    "testing": {},
    "staging": {},
    "production": {}
}